{
  "extends": ["tslint:recommended", "tslint-react", "tslint-config-prettier"],
  "linterOptions": {
    "exclude": [
      "config/**/*.js",
      "node_modules/**/*.ts",
      "coverage/lcov-report/*.js"
    ]
  },
  "rules": {
    "no-duplicate-variable": true,
    "ordered-imports": false,
    "new-parens": true,
    "no-arg": true,
    "no-bitwise": true,
    "no-conditional-assignment": true,
    "no-consecutive-blank-lines": false,
    "jsx-no-lambda": false,
    "object-literal-sort-keys": false,
    "triple-equals": false,
    "radix": false,
    "no-empty": false,
    "no-console": false,
    "max-line-length": false,
    "no-string-literal": false,
    "variable-name": false,
    "object-literal-shorthand": false
  },
  "jsRules": {
      "object-literal-sort-keys": false,
      "triple-equals": false,
      "radix": false,
      "no-empty": false,
      "no-console": false,
      "max-line-length": false,
      "no-string-literal": false,
      "variable-name": false
  }
}
